{
  "data": [
    {
      "machine_id": "CNC_05",
      "type": "Drehmaschine",
      "runtime_hours": 8.3,
      "parts_produced": 148,
      "status": "active",
      "utilization_percent": 92
    },
    {
      "machine_id": "LASER_01",
      "type": "Laserschneidanlage",
      "runtime_hours": 7.5,
      "parts_produced": 89,
      "status": "active",
      "utilization_percent": 83
    },
    {
      "machine_id": "ROBOT_02",
      "type": "Industrieroboter",
      "runtime_hours": 8.9,
      "parts_produced": 192,
      "status": "active",
      "utilization_percent": 99
    },
    {
      "machine_id": "CNC_06",
      "type": "Fräsmaschine",
      "runtime_hours": 4.2,
      "parts_produced": 54,
      "status": "error",
      "utilization_percent": 0
    },
    {
      "machine_id": "PRESS_02",
      "type": "Hydraulikpresse",
      "runtime_hours": 7.1,
      "parts_produced": 95,
      "status": "active",
      "utilization_percent": 79
    },
    {
      "machine_id": "GRINDING_01",
      "type": "Schleifmaschine",
      "runtime_hours": 8.0,
      "parts_produced": 76,
      "status": "active",
      "utilization_percent": 89
    },
    {
      "machine_id": "CNC_07",
      "type": "Drehmaschine",
      "runtime_hours": 8.6,
      "parts_produced": 153,
      "status": "active",
      "utilization_percent": 96
    },
    {
      "machine_id": "ROBOT_03",
      "type": "Schweißroboter",
      "runtime_hours": 7.9,
      "parts_produced": 145,
      "status": "active",
      "utilization_percent": 88
    }
  ],
  "pagination": {
    "page": 2,
    "per_page": 8,
    "total_pages": 3,
    "total_items": 22
  },
  "metadata": {
    "date": "2026-01-05",
    "plant_id": "WERK_BERLIN",
    "shift": "Frühschicht",
    "generated_at": "2026-01-05T16:00:00Z"
  }
}
