{
  "data": [
    {
      "machine_id": "CNC_08",
      "type": "Fräsmaschine",
      "runtime_hours": 8.2,
      "parts_produced": 118,
      "status": "active",
      "utilization_percent": 91
    },
    {
      "machine_id": "BENDING_01",
      "type": "Abkantpresse",
      "runtime_hours": 6.8,
      "parts_produced": 82,
      "status": "active",
      "utilization_percent": 75
    },
    {
      "machine_id": "ROBOT_04",
      "type": "Industrieroboter",
      "runtime_hours": 5.5,
      "parts_produced": 102,
      "status": "maintenance",
      "utilization_percent": 0
    },
    {
      "machine_id": "CNC_09",
      "type": "Drehmaschine",
      "runtime_hours": 8.7,
      "parts_produced": 159,
      "status": "active",
      "utilization_percent": 97
    },
    {
      "machine_id": "INSPECTION_01",
      "type": "Qualitätsprüfung",
      "runtime_hours": 9.0,
      "parts_produced": 215,
      "status": "active",
      "utilization_percent": 100
    },
    {
      "machine_id": "CNC_10",
      "type": "Fräsmaschine",
      "runtime_hours": 7.4,
      "parts_produced": 104,
      "status": "active",
      "utilization_percent": 82
    }
  ],
  "pagination": {
    "page": 3,
    "per_page": 8,
    "total_pages": 3,
    "total_items": 22
  },
  "metadata": {
    "date": "2026-01-05",
    "plant_id": "WERK_BERLIN",
    "shift": "Frühschicht",
    "generated_at": "2026-01-05T16:00:00Z"
  }
}
