{
  "data": [
    {
      "machine_id": "CNC_01",
      "type": "Drehmaschine",
      "runtime_hours": 8.5,
      "parts_produced": 142,
      "status": "active",
      "utilization_percent": 94
    },
    {
      "machine_id": "CNC_02",
      "type": "Fräsmaschine",
      "runtime_hours": 7.2,
      "parts_produced": 98,
      "status": "active",
      "utilization_percent": 80
    },
    {
      "machine_id": "ROBOT_01",
      "type": "Industrieroboter",
      "runtime_hours": 9.1,
      "parts_produced": 205,
      "status": "maintenance",
      "utilization_percent": 0
    },
    {
      "machine_id": "CNC_03",
      "type": "Drehmaschine",
      "runtime_hours": 8.8,
      "parts_produced": 156,
      "status": "active",
      "utilization_percent": 97
    },
    {
      "machine_id": "PRESS_01",
      "type": "Hydraulikpresse",
      "runtime_hours": 6.5,
      "parts_produced": 87,
      "status": "active",
      "utilization_percent": 72
    },
    {
      "machine_id": "WELDING_01",
      "type": "Schweißroboter",
      "runtime_hours": 7.8,
      "parts_produced": 134,
      "status": "active",
      "utilization_percent": 86
    },
    {
      "machine_id": "CNC_04",
      "type": "Fräsmaschine",
      "runtime_hours": 8.1,
      "parts_produced": 112,
      "status": "active",
      "utilization_percent": 90
    },
    {
      "machine_id": "ASSEMBLY_01",
      "type": "Montageautomat",
      "runtime_hours": 9.0,
      "parts_produced": 198,
      "status": "active",
      "utilization_percent": 100
    }
  ],
  "pagination": {
    "page": 1,
    "per_page": 8,
    "total_pages": 3,
    "total_items": 22
  },
  "metadata": {
    "date": "2026-01-05",
    "plant_id": "WERK_BERLIN",
    "shift": "Frühschicht",
    "generated_at": "2026-01-05T16:00:00Z"
  }
}
